Chapter 11 Very Brief Intro to Data in R | Economics of Public and Social Issues
…
11.7.2 Economic mobility data

The Opportunity Atlas is a freely available interactive mapping tool that traces the roots of outcomes such as poverty and incarceration back to the neighborhoods in which children grew up. The atlas dataset we loaded has the underlying data to describe equality of opportunity across the 73,278 different neighborhoods in the United States.

Let’s unpack these data a bit more!

11.7.3 atlas data frame

We will begin by exploring the atlas data frame we just loaded to get an idea of its structure. Run the following code in your console (either by typing it or cutting & pasting it): it loads the atlas dataset into your Console. Note depending on the size of your monitor, the output may vary slightly.

atlas

## # A tibble: 73,278 × 62
##    tract county state    cz czname     hhinc_mean2000 mean_commutetime2000 frac_coll_plus2010 frac_coll_plus2000
##    <dbl>  <dbl> <dbl> <dbl> <chr>               <dbl>                <dbl>              <dbl>              <dbl>
##  1 20100      1     1 11101 Montgomery         68639.                 26.2             0.254              0.156 
##  2 20200      1     1 11101 Montgomery         57243.                 24.8             0.267              0.147 
##  3 20300      1     1 11101 Montgomery         75648.                 25.3             0.164              0.224 
##  4 20400      1     1 11101 Montgomery         74852.                 23.0             0.253              0.230 
##  5 20500      1     1 11101 Montgomery         96175.                 26.2             0.375              0.321 
##  6 20600      1     1 11101 Montgomery         68096.                 21.6             0.239              0.161 
##  7 20700      1     1 11101 Montgomery         65182.                 23.2             0.0691             0.117 
##  8 20801      1     1 11101 Montgomery         76874.                 30.3             0.283              0.188 
##  9 20802      1     1 11101 Montgomery         77310.                 30.7             0.195              0.189 
## 10 20900      1     1 11101 Montgomery         66234.                 36.4             0.128              0.0893
## # ℹ 73,268 more rows
## # ℹ 53 more variables: foreign_share2010 <dbl>, med_hhinc2016 <dbl>, med_hhinc1990 <dbl>, popdensity2000 <dbl>,
## #   poor_share2010 <dbl>, poor_share2000 <dbl>, poor_share1990 <dbl>, share_black2010 <dbl>, share_hisp2010 <dbl>,
## #   share_asian2010 <dbl>, share_black2000 <dbl>, share_white2000 <dbl>, share_hisp2000 <dbl>, share_asian2000 <dbl>,
## #   gsmn_math_g3_2013 <dbl>, rent_twobed2015 <dbl>, singleparent_share2010 <dbl>, singleparent_share1990 <dbl>,
## #   singleparent_share2000 <dbl>, traveltime15_2010 <dbl>, emp2000 <dbl>, mail_return_rate2010 <dbl>,
## #   ln_wage_growth_hs_grad <dbl>, jobs_total_5mi_2015 <dbl>, jobs_highpay_5mi_2015 <dbl>, nonwhite_share2010 <dbl>, …
…
